<svg width="162" height="26" viewBox="0 0 162 26" fill="none" xmlns="http://www.w3.org/2000/svg">
<g clip-path="url(#clip0_232_710)">
<mask id="path-1-inside-1_232_710" fill="white">
<path d="M2.3451 20.2533C2.16782 20.256 1.99182 20.223 1.82751 20.1564C1.6632 20.0898 1.51394 19.9909 1.38857 19.8655C1.2632 19.7402 1.16426 19.5909 1.09765 19.4266C1.03105 19.2622 0.998122 19.0862 1.0008 18.909V1.40098C0.994468 1.22137 1.02566 1.04242 1.09241 0.875561C1.15915 0.708698 1.25997 0.557612 1.38842 0.431922C1.51508 0.309143 1.66489 0.212726 1.82912 0.148316C1.99334 0.0839055 2.16874 0.0527828 2.3451 0.0567126H14.0237C14.1985 0.0485129 14.3731 0.0752324 14.5374 0.135394C14.7016 0.195556 14.8522 0.287928 14.9804 0.40705C15.1014 0.526132 15.1963 0.669244 15.2587 0.827151C15.3212 0.985057 15.35 1.15425 15.3431 1.32393C15.3492 1.48798 15.32 1.65142 15.2574 1.80318C15.1948 1.95494 15.1003 2.09151 14.9804 2.20357C14.7172 2.43548 14.3741 2.55583 14.0237 2.53904H3.67944V8.82315H11.1016C11.2763 8.81495 11.451 8.84166 11.6152 8.90183C11.7795 8.96199 11.9301 9.05436 12.0582 9.17348C12.2911 9.41205 12.4214 9.73221 12.4214 10.0656C12.4214 10.3989 12.2911 10.719 12.0582 10.9576C11.9299 11.0762 11.7792 11.1682 11.615 11.2279C11.4507 11.2876 11.2762 11.314 11.1016 11.3055H3.67944V17.766H14.0237C14.3741 17.7492 14.7172 17.8695 14.9804 18.1014C15.1 18.2138 15.1942 18.3503 15.2567 18.502C15.3193 18.6537 15.3488 18.817 15.3431 18.981C15.35 19.1511 15.3213 19.3207 15.2588 19.479C15.1964 19.6373 15.1015 19.7809 14.9804 19.9004C14.8517 20.0186 14.701 20.1102 14.5368 20.1699C14.3726 20.2296 14.1982 20.2563 14.0237 20.2483L2.3451 20.2533Z"/>
<path d="M23.4983 20.2533C22.7769 20.2651 22.0705 20.0476 21.4806 19.6321C20.881 19.2008 20.4081 18.6164 20.1115 17.9399C19.7689 17.1623 19.5994 16.3196 19.6145 15.47V1.3513C19.6069 1.17669 19.6347 1.00233 19.6962 0.838746C19.7577 0.675159 19.8518 0.525681 19.9726 0.399414C20.0935 0.273148 20.2387 0.17269 20.3994 0.104039C20.5601 0.0353887 20.7331 0 20.9079 0C21.0827 0 21.2556 0.0353887 21.4164 0.104039C21.5771 0.17269 21.7223 0.273148 21.8431 0.399414C21.964 0.525681 22.058 0.675159 22.1196 0.838746C22.1811 1.00233 22.2089 1.17669 22.2012 1.3513V15.47C22.1791 16.0189 22.3044 16.5637 22.564 17.0479C22.6466 17.2268 22.7771 17.3794 22.9412 17.4886C23.1053 17.5979 23.2964 17.6594 23.4933 17.6666H24.1394C24.2978 17.6616 24.4554 17.6915 24.6009 17.7542C24.7465 17.8169 24.8765 17.9108 24.9817 18.0293C25.2027 18.2883 25.318 18.621 25.3047 18.9611C25.3057 19.1455 25.2609 19.3272 25.1741 19.4899C25.0873 19.6526 24.9614 19.7911 24.8078 19.893C24.4354 20.1469 23.9908 20.2733 23.5405 20.2533H23.4983Z"/>
<path d="M30.5055 26.3038C30.3311 26.309 30.1576 26.2784 29.9955 26.2141C29.8334 26.1497 29.6861 26.0529 29.5628 25.9296C29.4395 25.8062 29.3426 25.659 29.2783 25.4968C29.2139 25.3347 29.1834 25.1612 29.1885 24.9868V13.2039C29.1843 11.9175 29.514 10.6521 30.1452 9.5313C30.7459 8.46362 31.6209 7.5758 32.6797 6.95956C33.4917 6.4796 34.3907 6.16531 35.3249 6.03485C36.259 5.90439 37.2098 5.9603 38.1222 6.19943C39.0346 6.43857 39.8906 6.85618 40.6407 7.42807C41.3907 7.99995 42.02 8.71478 42.4922 9.5313C43.1292 10.6492 43.4552 11.9173 43.4365 13.2039C43.4581 14.4772 43.1599 15.7357 42.5693 16.864C42.02 17.9106 41.2039 18.7935 40.2037 19.4234C39.2779 19.9836 38.2275 20.3051 37.1468 20.3594C36.066 20.4136 34.9888 20.1987 34.0116 19.734C33.1698 19.3211 32.4247 18.7351 31.8249 18.0145V24.9968C31.8305 25.1704 31.8013 25.3434 31.739 25.5056C31.6767 25.6677 31.5825 25.8158 31.4621 25.941C31.3366 26.0645 31.1867 26.1606 31.022 26.2231C30.8573 26.2855 30.6814 26.313 30.5055 26.3038ZM36.3001 18.0294C37.1283 18.0428 37.9437 17.8233 38.6532 17.3958C39.3435 16.9706 39.9093 16.3705 40.2932 15.6564C40.694 14.8895 40.9033 14.037 40.9033 13.1716C40.9033 12.3062 40.694 11.4537 40.2932 10.6868C39.9093 9.97264 39.3435 9.37261 38.6532 8.94741C38.1272 8.62915 37.5418 8.42133 36.9328 8.3367C36.3239 8.25207 35.7041 8.29237 35.1112 8.45512C34.5183 8.61787 33.9648 8.89969 33.4844 9.28337C33.004 9.66704 32.6068 10.1446 32.3169 10.6868C31.9256 11.4566 31.7217 12.308 31.7217 13.1716C31.7217 14.0352 31.9256 14.8866 32.3169 15.6564C32.6991 16.3773 33.2721 16.9791 33.9732 17.3963C34.6744 17.8135 35.4768 18.0299 36.2926 18.0219L36.3001 18.0294Z"/>
<path d="M49.9516 20.2533C49.6026 20.2764 49.2586 20.1603 48.995 19.9303C48.8758 19.8002 48.7845 19.6472 48.7268 19.4805C48.6691 19.3138 48.6462 19.137 48.6595 18.9611V7.40178C48.6402 7.22739 48.6603 7.05089 48.7184 6.88534C48.7765 6.71979 48.8711 6.56941 48.9952 6.44534C49.1193 6.32128 49.2696 6.22669 49.4352 6.16859C49.6007 6.11049 49.7772 6.09036 49.9516 6.10968C50.1273 6.08438 50.3065 6.10033 50.4749 6.15627C50.6433 6.21222 50.7964 6.30668 50.922 6.43205C51.0476 6.55743 51.1423 6.71034 51.1986 6.87867C51.2549 7.04699 51.2712 7.22606 51.2462 7.40178V18.9611C51.268 19.31 51.152 19.6536 50.9232 19.9178C50.7928 20.0372 50.6393 20.1286 50.4722 20.1863C50.3051 20.244 50.1279 20.2668 49.9516 20.2533ZM49.9268 11.4098C49.9117 10.4293 50.1763 9.46486 50.6896 8.62932C51.1958 7.81354 51.9035 7.14177 52.7446 6.67872C53.6136 6.19321 54.5943 5.94312 55.5897 5.95317C56.6233 5.95317 57.3953 6.11882 57.9055 6.45013C58.4025 6.78558 58.6062 7.19554 58.487 7.65274C58.4507 7.86576 58.346 8.06115 58.1888 8.20934C58.0489 8.33597 57.8771 8.4219 57.6918 8.45782C57.4851 8.49152 57.2736 8.48225 57.0706 8.43052C56.091 8.20735 55.0757 8.1896 54.0888 8.37835C53.3062 8.5195 52.5827 8.88861 52.0091 9.43937C51.7558 9.69852 51.5576 10.0063 51.4265 10.3441C51.2954 10.6819 51.2341 11.0427 51.2462 11.4048L49.9268 11.4098Z"/>
<path d="M68.133 20.3577C66.8039 20.3831 65.4904 20.0665 64.3188 19.4383C63.2305 18.8506 62.3258 17.9734 61.7048 16.9037C61.0622 15.7746 60.7368 14.4928 60.7631 13.1939C60.7368 11.8957 61.044 10.6124 61.6551 9.4667C62.2291 8.41118 63.0828 7.53425 64.1225 6.9322C65.2255 6.3079 66.4758 5.99126 67.7429 6.01532C68.9633 5.97941 70.1691 6.28857 71.2216 6.90733C72.1808 7.49558 72.9489 8.34919 73.4331 9.36484C73.9594 10.4927 74.2203 11.726 74.196 12.9703C74.2004 13.1221 74.1729 13.2731 74.1151 13.4135C74.0573 13.554 73.9705 13.6807 73.8605 13.7853C73.7466 13.8932 73.6123 13.9773 73.4656 14.0327C73.3188 14.0882 73.1625 14.1138 73.0057 14.1083H62.5844V12.041H72.9287L71.8677 12.7641C71.8648 11.9646 71.6885 11.1753 71.3509 10.4507C71.0409 9.76516 70.5328 9.18814 69.8919 8.79399C69.2511 8.39984 68.507 8.20664 67.7553 8.23921C66.8715 8.21439 65.9985 8.43826 65.2357 8.88529C64.5443 9.3083 63.9916 9.92405 63.6454 10.6569C63.2726 11.4535 63.0865 12.3245 63.1013 13.2039C63.0857 14.0913 63.3088 14.9666 63.7473 15.7384C64.1741 16.4737 64.7901 17.0812 65.5314 17.4976C66.3312 17.938 67.2326 18.1607 68.1454 18.1437C68.7052 18.1391 69.2599 18.0382 69.7854 17.8455C70.2701 17.6858 70.7282 17.4547 71.1446 17.1597C71.3868 16.9758 71.6805 16.8724 71.9845 16.864C72.272 16.8502 72.5539 16.9472 72.7722 17.1349C72.904 17.2375 73.0136 17.3661 73.0939 17.5127C73.1742 17.6593 73.2237 17.8207 73.2393 17.9871C73.2451 18.1453 73.2099 18.3023 73.1372 18.4429C73.0645 18.5835 72.9567 18.703 72.8243 18.7897C72.1673 19.2921 71.4284 19.6771 70.6402 19.9278C69.8335 20.207 68.9866 20.3522 68.133 20.3577Z"/>
<path d="M83.9836 20.3576C82.8432 20.3685 81.7097 20.1801 80.6341 19.8011C79.7439 19.5119 78.9279 19.0309 78.2437 18.3921C78.1209 18.2701 78.0277 18.1215 77.9713 17.9578C77.9149 17.7941 77.8967 17.6197 77.9182 17.4479C77.9373 17.2771 77.9913 17.112 78.0768 16.9628C78.1623 16.8136 78.2774 16.6836 78.4152 16.5807C78.5527 16.4562 78.7143 16.3611 78.8899 16.3013C79.0655 16.2415 79.2515 16.2182 79.4364 16.2328C79.7707 16.2737 80.0788 16.4344 80.3036 16.6851C80.705 17.0852 81.1846 17.3982 81.7125 17.6045C82.3948 17.8949 83.1303 18.0396 83.8718 18.0293C84.8658 18.0293 85.6286 17.8637 86.1603 17.5324C86.3949 17.4105 86.5935 17.2295 86.7365 17.0072C86.8794 16.7849 86.9618 16.5291 86.9754 16.2652C86.9756 15.9962 86.9072 15.7316 86.7768 15.4964C86.6464 15.2612 86.4581 15.0631 86.2299 14.9208C85.7214 14.5431 84.7945 14.2334 83.4494 13.9915C81.7084 13.647 80.4453 13.1293 79.6601 12.4385C79.2869 12.131 78.9877 11.7436 78.7842 11.3049C78.5808 10.8663 78.4785 10.3875 78.4847 9.90402C78.457 9.10403 78.7341 8.32335 79.26 7.71985C79.8014 7.1264 80.4857 6.68157 81.2479 6.42776C82.0621 6.1417 82.9194 5.99716 83.7824 6.00038C84.8169 5.98181 85.845 6.16581 86.8089 6.54205C87.6218 6.85416 88.3425 7.36707 88.9036 8.03294C89.0147 8.14767 89.1017 8.28357 89.1593 8.43254C89.2169 8.58151 89.244 8.7405 89.239 8.90014C89.2283 9.05231 89.1832 9.2001 89.107 9.33225C89.0308 9.46441 88.9255 9.57749 88.7992 9.663C88.6546 9.75924 88.4919 9.82496 88.321 9.85615C88.1501 9.88734 87.9746 9.88333 87.8053 9.84438C87.4477 9.78528 87.1152 9.62293 86.8486 9.37727C86.4562 8.98791 85.9779 8.69595 85.4522 8.52493C84.8875 8.35967 84.3011 8.28093 83.7128 8.29137C83.0497 8.27148 82.3908 8.40411 81.7871 8.67902C81.2603 8.9275 80.9994 9.31764 80.9994 9.81708C80.9962 10.1156 81.0828 10.4082 81.2479 10.6569C81.4992 10.9713 81.8369 11.2053 82.2194 11.3303C82.9071 11.5871 83.6165 11.7817 84.339 11.9118C85.4018 12.0976 86.4332 12.4322 87.4027 12.9057C88.0544 13.2155 88.6125 13.6921 89.0204 14.2873C89.355 14.8361 89.5273 15.4684 89.5173 16.1111C89.526 16.874 89.3053 17.622 88.8837 18.258C88.4192 18.9315 87.7741 19.4603 87.0226 19.7836C86.0625 20.1908 85.0261 20.3865 83.9836 20.3576Z"/>
<path d="M100.818 20.3576C99.4891 20.383 98.1757 20.0665 97.0041 19.4383C95.9161 18.851 95.0121 17.9737 94.3925 16.9037C93.7491 15.7748 93.4228 14.493 93.4483 13.1939C93.4232 11.8958 93.7303 10.6128 94.3404 9.46667C94.9153 8.41106 95.7698 7.53417 96.8103 6.93217C97.9085 6.3033 99.1553 5.98065 100.421 5.99788C101.636 5.96425 102.837 6.27341 103.885 6.88995C104.844 7.47753 105.613 8.33127 106.096 9.3474C106.631 10.4737 106.9 11.7084 106.881 12.9554C106.886 13.1072 106.858 13.2582 106.8 13.3986C106.743 13.5391 106.656 13.6657 106.546 13.7704C106.432 13.8783 106.298 13.9625 106.151 14.018C106.004 14.0734 105.848 14.0991 105.691 14.0934H95.2697V12.026H105.614L104.555 12.7491C104.552 11.9495 104.375 11.1602 104.036 10.4358C103.723 9.74886 103.212 9.17171 102.567 8.77916C101.922 8.38661 101.175 8.19675 100.421 8.23421C99.5361 8.20892 98.6621 8.43281 97.8986 8.88029C97.2078 9.30396 96.6552 9.91953 96.3083 10.6519C95.9364 11.4487 95.7511 12.3197 95.7666 13.1989C95.75 14.0864 95.9732 14.9621 96.4127 15.7334C96.8381 16.4698 97.4545 17.0776 98.1968 17.4926C98.9955 17.9334 99.8962 18.1563 100.808 18.1387C101.369 18.1339 101.924 18.033 102.451 17.8405C102.935 17.6803 103.392 17.4492 103.808 17.1547C104.05 16.9711 104.343 16.8678 104.647 16.859C104.936 16.8448 105.218 16.9418 105.438 17.1299C105.569 17.2326 105.678 17.3612 105.758 17.5078C105.838 17.6544 105.887 17.8158 105.902 17.9821C105.908 18.1401 105.874 18.297 105.802 18.4377C105.729 18.5783 105.622 18.6979 105.49 18.7847C104.832 19.2869 104.092 19.6718 103.303 19.9228C102.504 20.2015 101.665 20.3483 100.818 20.3576Z"/>
<path d="M112.845 20.2805C112.67 20.2856 112.496 20.2551 112.334 20.1906C112.171 20.1261 112.024 20.0291 111.9 19.9055C111.777 19.7819 111.68 19.6344 111.615 19.472C111.551 19.3096 111.52 19.1357 111.525 18.961V7.42654C111.518 7.24981 111.548 7.07354 111.613 6.90889C111.677 6.74423 111.775 6.59473 111.901 6.46986C112.026 6.35002 112.174 6.25643 112.336 6.19456C112.498 6.1327 112.671 6.10381 112.845 6.10957C113.021 6.0983 113.197 6.12464 113.362 6.1868C113.527 6.24896 113.677 6.34553 113.802 6.4701C113.927 6.59468 114.024 6.74441 114.086 6.90931C114.148 7.07422 114.175 7.25053 114.164 7.42654V18.961C114.17 19.1346 114.14 19.3076 114.078 19.4697C114.016 19.6318 113.922 19.7799 113.801 19.9053C113.677 20.0309 113.527 20.1292 113.363 20.1938C113.198 20.2584 113.022 20.2879 112.845 20.2805ZM123.472 20.2805C123.298 20.2857 123.124 20.255 122.962 20.1905C122.799 20.126 122.652 20.029 122.529 19.9054C122.405 19.7818 122.309 19.6342 122.244 19.4718C122.18 19.3094 122.15 19.1356 122.155 18.961V12.5999C122.19 11.7641 122.002 10.934 121.611 10.1946C121.273 9.59768 120.764 9.11567 120.15 8.81059C119.492 8.49941 118.771 8.34462 118.043 8.35834C117.362 8.34836 116.689 8.49905 116.078 8.79816C115.521 9.0669 115.041 9.47101 114.681 9.97347C114.335 10.4698 114.154 11.0629 114.164 11.6681H112.534C112.518 10.6431 112.792 9.63433 113.324 8.75842C113.853 7.90317 114.597 7.20276 115.484 6.72829C116.429 6.22203 117.488 5.96545 118.56 5.98284C119.672 5.96435 120.77 6.22766 121.753 6.74819C122.702 7.257 123.48 8.03501 123.989 8.98452C124.532 9.96519 124.804 11.172 124.804 12.6049V18.966C124.809 19.1407 124.779 19.3146 124.714 19.477C124.65 19.6394 124.553 19.7869 124.429 19.9105C124.306 20.034 124.158 20.1311 123.996 20.1955C123.833 20.26 123.659 20.2906 123.485 20.2855L123.472 20.2805Z"/>
<path d="M129.858 8.85034C129.536 8.86499 129.22 8.7536 128.979 8.53974C128.87 8.44223 128.784 8.32253 128.726 8.18874C128.668 8.05495 128.64 7.91025 128.643 7.76451C128.636 7.61058 128.663 7.45694 128.721 7.31414C128.778 7.17134 128.866 7.04272 128.979 6.93705C129.22 6.72319 129.536 6.61179 129.858 6.62645H135.822C136.144 6.61179 136.46 6.72319 136.701 6.93705C136.814 7.04272 136.902 7.17134 136.96 7.31414C137.017 7.45694 137.044 7.61058 137.037 7.76451C137.04 7.91025 137.012 8.05495 136.954 8.18874C136.896 8.32253 136.81 8.44223 136.701 8.53974C136.46 8.7536 136.144 8.86499 135.822 8.85034H129.858ZM135.598 20.2532C134.775 20.2649 133.967 20.036 133.272 19.5947C132.579 19.1519 132.016 18.5317 131.642 17.7982C131.238 17.0056 131.034 16.126 131.049 15.2363V2.90171C131.049 2.55902 131.185 2.23036 131.427 1.98804C131.669 1.74573 131.998 1.60962 132.341 1.60962C132.683 1.60962 133.012 1.74573 133.254 1.98804C133.497 2.23036 133.633 2.55902 133.633 2.90171V15.2363C133.611 15.865 133.813 16.4811 134.202 16.9757C134.364 17.1924 134.575 17.3681 134.818 17.4889C135.06 17.6097 135.327 17.6722 135.598 17.6714H136.478C136.628 17.6699 136.776 17.7016 136.912 17.7644C137.049 17.8271 137.169 17.9192 137.266 18.0342C137.488 18.2923 137.605 18.6254 137.591 18.966C137.595 19.1436 137.559 19.3197 137.485 19.4811C137.41 19.6425 137.301 19.785 137.164 19.8978C136.853 20.147 136.463 20.275 136.065 20.2581L135.598 20.2532Z"/>
<path d="M141.793 20.5241C141.486 20.5196 141.193 20.3957 140.976 20.1786C140.758 19.9614 140.634 19.6682 140.63 19.3612C140.628 19.2059 140.657 19.0516 140.716 18.908C140.776 18.7644 140.864 18.6345 140.975 18.5263C141.083 18.4177 141.211 18.3316 141.352 18.2728C141.493 18.214 141.644 18.1837 141.797 18.1837C141.949 18.1837 142.101 18.214 142.242 18.2728C142.383 18.3316 142.51 18.4177 142.618 18.5263C142.727 18.636 142.812 18.7665 142.87 18.9099C142.928 19.0533 142.956 19.2067 142.953 19.3612C142.955 19.513 142.926 19.6636 142.869 19.804C142.811 19.9445 142.726 20.0719 142.618 20.1787C142.511 20.2899 142.383 20.3779 142.241 20.4373C142.099 20.4967 141.947 20.5263 141.793 20.5241Z"/>
<path d="M146.43 20.2533C146.349 20.2546 146.269 20.2397 146.194 20.2095C146.119 20.1793 146.051 20.1343 145.993 20.0773C145.936 20.0203 145.891 19.9524 145.86 19.8776C145.83 19.8029 145.815 19.7227 145.816 19.642V11.6608C145.813 11.5788 145.827 11.4972 145.857 11.4211C145.888 11.3449 145.934 11.2759 145.992 11.2185C146.05 11.1622 146.118 11.1181 146.194 11.0886C146.269 11.0592 146.349 11.0451 146.43 11.047H149.247C149.735 11.0365 150.219 11.1439 150.656 11.3601C151.047 11.5561 151.377 11.8551 151.61 12.2248C151.845 12.6079 151.966 13.0501 151.958 13.4995C151.962 13.8711 151.853 14.2351 151.645 14.5431C151.431 14.8629 151.136 15.1202 150.79 15.2886C151.274 15.3964 151.71 15.6579 152.033 16.034C152.362 16.444 152.53 16.9601 152.505 17.4852C152.518 17.9844 152.388 18.477 152.132 18.9056C151.875 19.3341 151.502 19.6808 151.056 19.9054C150.571 20.1526 150.033 20.2763 149.488 20.2656L146.43 20.2533ZM147.043 14.8314H149.247C149.641 14.8491 150.029 14.7326 150.348 14.5009C150.494 14.3817 150.61 14.2293 150.685 14.0564C150.76 13.8835 150.793 13.6951 150.78 13.507C150.794 13.3186 150.762 13.1297 150.687 12.9566C150.612 12.7834 150.495 12.6312 150.348 12.513C150.027 12.2857 149.64 12.1712 149.247 12.1875H147.043V14.8314ZM147.043 19.1227H149.496C149.824 19.1284 150.149 19.064 150.45 18.9338C150.715 18.8149 150.94 18.6226 151.098 18.3797C151.268 18.108 151.354 17.7928 151.347 17.4727C151.355 17.1743 151.268 16.8811 151.098 16.6354C150.933 16.4126 150.708 16.2404 150.45 16.1384C150.146 16.0192 149.822 15.9609 149.496 15.967H147.043V19.1227Z"/>
<path d="M157.099 20.2533C157.02 20.2533 156.94 20.2374 156.867 20.2066C156.793 20.1757 156.727 20.1306 156.671 20.0737C156.615 20.0168 156.57 19.9493 156.541 19.8752C156.511 19.8011 156.497 19.7218 156.498 19.642V16.8938L153.347 12.0012C153.253 11.8658 153.21 11.7008 153.228 11.5365C153.249 11.397 153.323 11.2708 153.434 11.1837C153.546 11.0932 153.686 11.0448 153.829 11.047C153.943 11.0416 154.055 11.072 154.15 11.134C154.238 11.2038 154.313 11.2878 154.373 11.3825L157.368 16.131H156.896L159.937 11.3328C159.994 11.2445 160.07 11.1706 160.161 11.1166C160.258 11.0624 160.368 11.0358 160.479 11.0396C160.545 11.038 160.611 11.0503 160.672 11.0755C160.733 11.1007 160.788 11.1384 160.834 11.1862C160.928 11.2864 160.985 11.4149 160.998 11.5515C161.01 11.7078 160.969 11.8636 160.881 11.9937L157.708 16.8864V19.6345C157.71 19.7153 157.696 19.7956 157.665 19.8704C157.635 19.9453 157.59 20.013 157.532 20.0694C157.476 20.1278 157.409 20.1743 157.334 20.2059C157.26 20.2375 157.18 20.2537 157.099 20.2533Z"/>
</mask>
<path d="M2.3451 20.2533C2.16782 20.256 1.99182 20.223 1.82751 20.1564C1.6632 20.0898 1.51394 19.9909 1.38857 19.8655C1.2632 19.7402 1.16426 19.5909 1.09765 19.4266C1.03105 19.2622 0.998122 19.0862 1.0008 18.909V1.40098C0.994468 1.22137 1.02566 1.04242 1.09241 0.875561C1.15915 0.708698 1.25997 0.557612 1.38842 0.431922C1.51508 0.309143 1.66489 0.212726 1.82912 0.148316C1.99334 0.0839055 2.16874 0.0527828 2.3451 0.0567126H14.0237C14.1985 0.0485129 14.3731 0.0752324 14.5374 0.135394C14.7016 0.195556 14.8522 0.287928 14.9804 0.40705C15.1014 0.526132 15.1963 0.669244 15.2587 0.827151C15.3212 0.985057 15.35 1.15425 15.3431 1.32393C15.3492 1.48798 15.32 1.65142 15.2574 1.80318C15.1948 1.95494 15.1003 2.09151 14.9804 2.20357C14.7172 2.43548 14.3741 2.55583 14.0237 2.53904H3.67944V8.82315H11.1016C11.2763 8.81495 11.451 8.84166 11.6152 8.90183C11.7795 8.96199 11.9301 9.05436 12.0582 9.17348C12.2911 9.41205 12.4214 9.73221 12.4214 10.0656C12.4214 10.3989 12.2911 10.719 12.0582 10.9576C11.9299 11.0762 11.7792 11.1682 11.615 11.2279C11.4507 11.2876 11.2762 11.314 11.1016 11.3055H3.67944V17.766H14.0237C14.3741 17.7492 14.7172 17.8695 14.9804 18.1014C15.1 18.2138 15.1942 18.3503 15.2567 18.502C15.3193 18.6537 15.3488 18.817 15.3431 18.981C15.35 19.1511 15.3213 19.3207 15.2588 19.479C15.1964 19.6373 15.1015 19.7809 14.9804 19.9004C14.8517 20.0186 14.701 20.1102 14.5368 20.1699C14.3726 20.2296 14.1982 20.2563 14.0237 20.2483L2.3451 20.2533Z" fill="#FFFDFC"/>
<path d="M23.4983 20.2533C22.7769 20.2651 22.0705 20.0476 21.4806 19.6321C20.881 19.2008 20.4081 18.6164 20.1115 17.9399C19.7689 17.1623 19.5994 16.3196 19.6145 15.47V1.3513C19.6069 1.17669 19.6347 1.00233 19.6962 0.838746C19.7577 0.675159 19.8518 0.525681 19.9726 0.399414C20.0935 0.273148 20.2387 0.17269 20.3994 0.104039C20.5601 0.0353887 20.7331 0 20.9079 0C21.0827 0 21.2556 0.0353887 21.4164 0.104039C21.5771 0.17269 21.7223 0.273148 21.8431 0.399414C21.964 0.525681 22.058 0.675159 22.1196 0.838746C22.1811 1.00233 22.2089 1.17669 22.2012 1.3513V15.47C22.1791 16.0189 22.3044 16.5637 22.564 17.0479C22.6466 17.2268 22.7771 17.3794 22.9412 17.4886C23.1053 17.5979 23.2964 17.6594 23.4933 17.6666H24.1394C24.2978 17.6616 24.4554 17.6915 24.6009 17.7542C24.7465 17.8169 24.8765 17.9108 24.9817 18.0293C25.2027 18.2883 25.318 18.621 25.3047 18.9611C25.3057 19.1455 25.2609 19.3272 25.1741 19.4899C25.0873 19.6526 24.9614 19.7911 24.8078 19.893C24.4354 20.1469 23.9908 20.2733 23.5405 20.2533H23.4983Z" fill="#FFFDFC"/>
<path d="M30.5055 26.3038C30.3311 26.309 30.1576 26.2784 29.9955 26.2141C29.8334 26.1497 29.6861 26.0529 29.5628 25.9296C29.4395 25.8062 29.3426 25.659 29.2783 25.4968C29.2139 25.3347 29.1834 25.1612 29.1885 24.9868V13.2039C29.1843 11.9175 29.514 10.6521 30.1452 9.5313C30.7459 8.46362 31.6209 7.5758 32.6797 6.95956C33.4917 6.4796 34.3907 6.16531 35.3249 6.03485C36.259 5.90439 37.2098 5.9603 38.1222 6.19943C39.0346 6.43857 39.8906 6.85618 40.6407 7.42807C41.3907 7.99995 42.02 8.71478 42.4922 9.5313C43.1292 10.6492 43.4552 11.9173 43.4365 13.2039C43.4581 14.4772 43.1599 15.7357 42.5693 16.864C42.02 17.9106 41.2039 18.7935 40.2037 19.4234C39.2779 19.9836 38.2275 20.3051 37.1468 20.3594C36.066 20.4136 34.9888 20.1987 34.0116 19.734C33.1698 19.3211 32.4247 18.7351 31.8249 18.0145V24.9968C31.8305 25.1704 31.8013 25.3434 31.739 25.5056C31.6767 25.6677 31.5825 25.8158 31.4621 25.941C31.3366 26.0645 31.1867 26.1606 31.022 26.2231C30.8573 26.2855 30.6814 26.313 30.5055 26.3038ZM36.3001 18.0294C37.1283 18.0428 37.9437 17.8233 38.6532 17.3958C39.3435 16.9706 39.9093 16.3705 40.2932 15.6564C40.694 14.8895 40.9033 14.037 40.9033 13.1716C40.9033 12.3062 40.694 11.4537 40.2932 10.6868C39.9093 9.97264 39.3435 9.37261 38.6532 8.94741C38.1272 8.62915 37.5418 8.42133 36.9328 8.3367C36.3239 8.25207 35.7041 8.29237 35.1112 8.45512C34.5183 8.61787 33.9648 8.89969 33.4844 9.28337C33.004 9.66704 32.6068 10.1446 32.3169 10.6868C31.9256 11.4566 31.7217 12.308 31.7217 13.1716C31.7217 14.0352 31.9256 14.8866 32.3169 15.6564C32.6991 16.3773 33.2721 16.9791 33.9732 17.3963C34.6744 17.8135 35.4768 18.0299 36.2926 18.0219L36.3001 18.0294Z" fill="#FFFDFC"/>
<path d="M49.9516 20.2533C49.6026 20.2764 49.2586 20.1603 48.995 19.9303C48.8758 19.8002 48.7845 19.6472 48.7268 19.4805C48.6691 19.3138 48.6462 19.137 48.6595 18.9611V7.40178C48.6402 7.22739 48.6603 7.05089 48.7184 6.88534C48.7765 6.71979 48.8711 6.56941 48.9952 6.44534C49.1193 6.32128 49.2696 6.22669 49.4352 6.16859C49.6007 6.11049 49.7772 6.09036 49.9516 6.10968C50.1273 6.08438 50.3065 6.10033 50.4749 6.15627C50.6433 6.21222 50.7964 6.30668 50.922 6.43205C51.0476 6.55743 51.1423 6.71034 51.1986 6.87867C51.2549 7.04699 51.2712 7.22606 51.2462 7.40178V18.9611C51.268 19.31 51.152 19.6536 50.9232 19.9178C50.7928 20.0372 50.6393 20.1286 50.4722 20.1863C50.3051 20.244 50.1279 20.2668 49.9516 20.2533ZM49.9268 11.4098C49.9117 10.4293 50.1763 9.46486 50.6896 8.62932C51.1958 7.81354 51.9035 7.14177 52.7446 6.67872C53.6136 6.19321 54.5943 5.94312 55.5897 5.95317C56.6233 5.95317 57.3953 6.11882 57.9055 6.45013C58.4025 6.78558 58.6062 7.19554 58.487 7.65274C58.4507 7.86576 58.346 8.06115 58.1888 8.20934C58.0489 8.33597 57.8771 8.4219 57.6918 8.45782C57.4851 8.49152 57.2736 8.48225 57.0706 8.43052C56.091 8.20735 55.0757 8.1896 54.0888 8.37835C53.3062 8.5195 52.5827 8.88861 52.0091 9.43937C51.7558 9.69852 51.5576 10.0063 51.4265 10.3441C51.2954 10.6819 51.2341 11.0427 51.2462 11.4048L49.9268 11.4098Z" fill="#FFFDFC"/>
<path d="M68.133 20.3577C66.8039 20.3831 65.4904 20.0665 64.3188 19.4383C63.2305 18.8506 62.3258 17.9734 61.7048 16.9037C61.0622 15.7746 60.7368 14.4928 60.7631 13.1939C60.7368 11.8957 61.044 10.6124 61.6551 9.4667C62.2291 8.41118 63.0828 7.53425 64.1225 6.9322C65.2255 6.3079 66.4758 5.99126 67.7429 6.01532C68.9633 5.97941 70.1691 6.28857 71.2216 6.90733C72.1808 7.49558 72.9489 8.34919 73.4331 9.36484C73.9594 10.4927 74.2203 11.726 74.196 12.9703C74.2004 13.1221 74.1729 13.2731 74.1151 13.4135C74.0573 13.554 73.9705 13.6807 73.8605 13.7853C73.7466 13.8932 73.6123 13.9773 73.4656 14.0327C73.3188 14.0882 73.1625 14.1138 73.0057 14.1083H62.5844V12.041H72.9287L71.8677 12.7641C71.8648 11.9646 71.6885 11.1753 71.3509 10.4507C71.0409 9.76516 70.5328 9.18814 69.8919 8.79399C69.2511 8.39984 68.507 8.20664 67.7553 8.23921C66.8715 8.21439 65.9985 8.43826 65.2357 8.88529C64.5443 9.3083 63.9916 9.92405 63.6454 10.6569C63.2726 11.4535 63.0865 12.3245 63.1013 13.2039C63.0857 14.0913 63.3088 14.9666 63.7473 15.7384C64.1741 16.4737 64.7901 17.0812 65.5314 17.4976C66.3312 17.938 67.2326 18.1607 68.1454 18.1437C68.7052 18.1391 69.2599 18.0382 69.7854 17.8455C70.2701 17.6858 70.7282 17.4547 71.1446 17.1597C71.3868 16.9758 71.6805 16.8724 71.9845 16.864C72.272 16.8502 72.5539 16.9472 72.7722 17.1349C72.904 17.2375 73.0136 17.3661 73.0939 17.5127C73.1742 17.6593 73.2237 17.8207 73.2393 17.9871C73.2451 18.1453 73.2099 18.3023 73.1372 18.4429C73.0645 18.5835 72.9567 18.703 72.8243 18.7897C72.1673 19.2921 71.4284 19.6771 70.6402 19.9278C69.8335 20.207 68.9866 20.3522 68.133 20.3577Z" fill="#FFFDFC"/>
<path d="M83.9836 20.3576C82.8432 20.3685 81.7097 20.1801 80.6341 19.8011C79.7439 19.5119 78.9279 19.0309 78.2437 18.3921C78.1209 18.2701 78.0277 18.1215 77.9713 17.9578C77.9149 17.7941 77.8967 17.6197 77.9182 17.4479C77.9373 17.2771 77.9913 17.112 78.0768 16.9628C78.1623 16.8136 78.2774 16.6836 78.4152 16.5807C78.5527 16.4562 78.7143 16.3611 78.8899 16.3013C79.0655 16.2415 79.2515 16.2182 79.4364 16.2328C79.7707 16.2737 80.0788 16.4344 80.3036 16.6851C80.705 17.0852 81.1846 17.3982 81.7125 17.6045C82.3948 17.8949 83.1303 18.0396 83.8718 18.0293C84.8658 18.0293 85.6286 17.8637 86.1603 17.5324C86.3949 17.4105 86.5935 17.2295 86.7365 17.0072C86.8794 16.7849 86.9618 16.5291 86.9754 16.2652C86.9756 15.9962 86.9072 15.7316 86.7768 15.4964C86.6464 15.2612 86.4581 15.0631 86.2299 14.9208C85.7214 14.5431 84.7945 14.2334 83.4494 13.9915C81.7084 13.647 80.4453 13.1293 79.6601 12.4385C79.2869 12.131 78.9877 11.7436 78.7842 11.3049C78.5808 10.8663 78.4785 10.3875 78.4847 9.90402C78.457 9.10403 78.7341 8.32335 79.26 7.71985C79.8014 7.1264 80.4857 6.68157 81.2479 6.42776C82.0621 6.1417 82.9194 5.99716 83.7824 6.00038C84.8169 5.98181 85.845 6.16581 86.8089 6.54205C87.6218 6.85416 88.3425 7.36707 88.9036 8.03294C89.0147 8.14767 89.1017 8.28357 89.1593 8.43254C89.2169 8.58151 89.244 8.7405 89.239 8.90014C89.2283 9.05231 89.1832 9.2001 89.107 9.33225C89.0308 9.46441 88.9255 9.57749 88.7992 9.663C88.6546 9.75924 88.4919 9.82496 88.321 9.85615C88.1501 9.88734 87.9746 9.88333 87.8053 9.84438C87.4477 9.78528 87.1152 9.62293 86.8486 9.37727C86.4562 8.98791 85.9779 8.69595 85.4522 8.52493C84.8875 8.35967 84.3011 8.28093 83.7128 8.29137C83.0497 8.27148 82.3908 8.40411 81.7871 8.67902C81.2603 8.9275 80.9994 9.31764 80.9994 9.81708C80.9962 10.1156 81.0828 10.4082 81.2479 10.6569C81.4992 10.9713 81.8369 11.2053 82.2194 11.3303C82.9071 11.5871 83.6165 11.7817 84.339 11.9118C85.4018 12.0976 86.4332 12.4322 87.4027 12.9057C88.0544 13.2155 88.6125 13.6921 89.0204 14.2873C89.355 14.8361 89.5273 15.4684 89.5173 16.1111C89.526 16.874 89.3053 17.622 88.8837 18.258C88.4192 18.9315 87.7741 19.4603 87.0226 19.7836C86.0625 20.1908 85.0261 20.3865 83.9836 20.3576Z" fill="#FFFDFC"/>
<path d="M100.818 20.3576C99.4891 20.383 98.1757 20.0665 97.0041 19.4383C95.9161 18.851 95.0121 17.9737 94.3925 16.9037C93.7491 15.7748 93.4228 14.493 93.4483 13.1939C93.4232 11.8958 93.7303 10.6128 94.3404 9.46667C94.9153 8.41106 95.7698 7.53417 96.8103 6.93217C97.9085 6.3033 99.1553 5.98065 100.421 5.99788C101.636 5.96425 102.837 6.27341 103.885 6.88995C104.844 7.47753 105.613 8.33127 106.096 9.3474C106.631 10.4737 106.9 11.7084 106.881 12.9554C106.886 13.1072 106.858 13.2582 106.8 13.3986C106.743 13.5391 106.656 13.6657 106.546 13.7704C106.432 13.8783 106.298 13.9625 106.151 14.018C106.004 14.0734 105.848 14.0991 105.691 14.0934H95.2697V12.026H105.614L104.555 12.7491C104.552 11.9495 104.375 11.1602 104.036 10.4358C103.723 9.74886 103.212 9.17171 102.567 8.77916C101.922 8.38661 101.175 8.19675 100.421 8.23421C99.5361 8.20892 98.6621 8.43281 97.8986 8.88029C97.2078 9.30396 96.6552 9.91953 96.3083 10.6519C95.9364 11.4487 95.7511 12.3197 95.7666 13.1989C95.75 14.0864 95.9732 14.9621 96.4127 15.7334C96.8381 16.4698 97.4545 17.0776 98.1968 17.4926C98.9955 17.9334 99.8962 18.1563 100.808 18.1387C101.369 18.1339 101.924 18.033 102.451 17.8405C102.935 17.6803 103.392 17.4492 103.808 17.1547C104.05 16.9711 104.343 16.8678 104.647 16.859C104.936 16.8448 105.218 16.9418 105.438 17.1299C105.569 17.2326 105.678 17.3612 105.758 17.5078C105.838 17.6544 105.887 17.8158 105.902 17.9821C105.908 18.1401 105.874 18.297 105.802 18.4377C105.729 18.5783 105.622 18.6979 105.49 18.7847C104.832 19.2869 104.092 19.6718 103.303 19.9228C102.504 20.2015 101.665 20.3483 100.818 20.3576Z" fill="#FFFDFC"/>
<path d="M112.845 20.2805C112.67 20.2856 112.496 20.2551 112.334 20.1906C112.171 20.1261 112.024 20.0291 111.9 19.9055C111.777 19.7819 111.68 19.6344 111.615 19.472C111.551 19.3096 111.52 19.1357 111.525 18.961V7.42654C111.518 7.24981 111.548 7.07354 111.613 6.90889C111.677 6.74423 111.775 6.59473 111.901 6.46986C112.026 6.35002 112.174 6.25643 112.336 6.19456C112.498 6.1327 112.671 6.10381 112.845 6.10957C113.021 6.0983 113.197 6.12464 113.362 6.1868C113.527 6.24896 113.677 6.34553 113.802 6.4701C113.927 6.59468 114.024 6.74441 114.086 6.90931C114.148 7.07422 114.175 7.25053 114.164 7.42654V18.961C114.17 19.1346 114.14 19.3076 114.078 19.4697C114.016 19.6318 113.922 19.7799 113.801 19.9053C113.677 20.0309 113.527 20.1292 113.363 20.1938C113.198 20.2584 113.022 20.2879 112.845 20.2805ZM123.472 20.2805C123.298 20.2857 123.124 20.255 122.962 20.1905C122.799 20.126 122.652 20.029 122.529 19.9054C122.405 19.7818 122.309 19.6342 122.244 19.4718C122.18 19.3094 122.15 19.1356 122.155 18.961V12.5999C122.19 11.7641 122.002 10.934 121.611 10.1946C121.273 9.59768 120.764 9.11567 120.15 8.81059C119.492 8.49941 118.771 8.34462 118.043 8.35834C117.362 8.34836 116.689 8.49905 116.078 8.79816C115.521 9.0669 115.041 9.47101 114.681 9.97347C114.335 10.4698 114.154 11.0629 114.164 11.6681H112.534C112.518 10.6431 112.792 9.63433 113.324 8.75842C113.853 7.90317 114.597 7.20276 115.484 6.72829C116.429 6.22203 117.488 5.96545 118.56 5.98284C119.672 5.96435 120.77 6.22766 121.753 6.74819C122.702 7.257 123.48 8.03501 123.989 8.98452C124.532 9.96519 124.804 11.172 124.804 12.6049V18.966C124.809 19.1407 124.779 19.3146 124.714 19.477C124.65 19.6394 124.553 19.7869 124.429 19.9105C124.306 20.034 124.158 20.1311 123.996 20.1955C123.833 20.26 123.659 20.2906 123.485 20.2855L123.472 20.2805Z" fill="#FFFDFC"/>
<path d="M129.858 8.85034C129.536 8.86499 129.22 8.7536 128.979 8.53974C128.87 8.44223 128.784 8.32253 128.726 8.18874C128.668 8.05495 128.64 7.91025 128.643 7.76451C128.636 7.61058 128.663 7.45694 128.721 7.31414C128.778 7.17134 128.866 7.04272 128.979 6.93705C129.22 6.72319 129.536 6.61179 129.858 6.62645H135.822C136.144 6.61179 136.46 6.72319 136.701 6.93705C136.814 7.04272 136.902 7.17134 136.96 7.31414C137.017 7.45694 137.044 7.61058 137.037 7.76451C137.04 7.91025 137.012 8.05495 136.954 8.18874C136.896 8.32253 136.81 8.44223 136.701 8.53974C136.46 8.7536 136.144 8.86499 135.822 8.85034H129.858ZM135.598 20.2532C134.775 20.2649 133.967 20.036 133.272 19.5947C132.579 19.1519 132.016 18.5317 131.642 17.7982C131.238 17.0056 131.034 16.126 131.049 15.2363V2.90171C131.049 2.55902 131.185 2.23036 131.427 1.98804C131.669 1.74573 131.998 1.60962 132.341 1.60962C132.683 1.60962 133.012 1.74573 133.254 1.98804C133.497 2.23036 133.633 2.55902 133.633 2.90171V15.2363C133.611 15.865 133.813 16.4811 134.202 16.9757C134.364 17.1924 134.575 17.3681 134.818 17.4889C135.06 17.6097 135.327 17.6722 135.598 17.6714H136.478C136.628 17.6699 136.776 17.7016 136.912 17.7644C137.049 17.8271 137.169 17.9192 137.266 18.0342C137.488 18.2923 137.605 18.6254 137.591 18.966C137.595 19.1436 137.559 19.3197 137.485 19.4811C137.41 19.6425 137.301 19.785 137.164 19.8978C136.853 20.147 136.463 20.275 136.065 20.2581L135.598 20.2532Z" fill="#FFFDFC"/>
<path d="M141.793 20.5241C141.486 20.5196 141.193 20.3957 140.976 20.1786C140.758 19.9614 140.634 19.6682 140.63 19.3612C140.628 19.2059 140.657 19.0516 140.716 18.908C140.776 18.7644 140.864 18.6345 140.975 18.5263C141.083 18.4177 141.211 18.3316 141.352 18.2728C141.493 18.214 141.644 18.1837 141.797 18.1837C141.949 18.1837 142.101 18.214 142.242 18.2728C142.383 18.3316 142.51 18.4177 142.618 18.5263C142.727 18.636 142.812 18.7665 142.87 18.9099C142.928 19.0533 142.956 19.2067 142.953 19.3612C142.955 19.513 142.926 19.6636 142.869 19.804C142.811 19.9445 142.726 20.0719 142.618 20.1787C142.511 20.2899 142.383 20.3779 142.241 20.4373C142.099 20.4967 141.947 20.5263 141.793 20.5241Z" fill="#FFFDFC"/>
<path d="M146.43 20.2533C146.349 20.2546 146.269 20.2397 146.194 20.2095C146.119 20.1793 146.051 20.1343 145.993 20.0773C145.936 20.0203 145.891 19.9524 145.86 19.8776C145.83 19.8029 145.815 19.7227 145.816 19.642V11.6608C145.813 11.5788 145.827 11.4972 145.857 11.4211C145.888 11.3449 145.934 11.2759 145.992 11.2185C146.05 11.1622 146.118 11.1181 146.194 11.0886C146.269 11.0592 146.349 11.0451 146.43 11.047H149.247C149.735 11.0365 150.219 11.1439 150.656 11.3601C151.047 11.5561 151.377 11.8551 151.61 12.2248C151.845 12.6079 151.966 13.0501 151.958 13.4995C151.962 13.8711 151.853 14.2351 151.645 14.5431C151.431 14.8629 151.136 15.1202 150.79 15.2886C151.274 15.3964 151.71 15.6579 152.033 16.034C152.362 16.444 152.53 16.9601 152.505 17.4852C152.518 17.9844 152.388 18.477 152.132 18.9056C151.875 19.3341 151.502 19.6808 151.056 19.9054C150.571 20.1526 150.033 20.2763 149.488 20.2656L146.43 20.2533ZM147.043 14.8314H149.247C149.641 14.8491 150.029 14.7326 150.348 14.5009C150.494 14.3817 150.61 14.2293 150.685 14.0564C150.76 13.8835 150.793 13.6951 150.78 13.507C150.794 13.3186 150.762 13.1297 150.687 12.9566C150.612 12.7834 150.495 12.6312 150.348 12.513C150.027 12.2857 149.64 12.1712 149.247 12.1875H147.043V14.8314ZM147.043 19.1227H149.496C149.824 19.1284 150.149 19.064 150.45 18.9338C150.715 18.8149 150.94 18.6226 151.098 18.3797C151.268 18.108 151.354 17.7928 151.347 17.4727C151.355 17.1743 151.268 16.8811 151.098 16.6354C150.933 16.4126 150.708 16.2404 150.45 16.1384C150.146 16.0192 149.822 15.9609 149.496 15.967H147.043V19.1227Z" fill="#FFFDFC"/>
<path d="M157.099 20.2533C157.02 20.2533 156.94 20.2374 156.867 20.2066C156.793 20.1757 156.727 20.1306 156.671 20.0737C156.615 20.0168 156.57 19.9493 156.541 19.8752C156.511 19.8011 156.497 19.7218 156.498 19.642V16.8938L153.347 12.0012C153.253 11.8658 153.21 11.7008 153.228 11.5365C153.249 11.397 153.323 11.2708 153.434 11.1837C153.546 11.0932 153.686 11.0448 153.829 11.047C153.943 11.0416 154.055 11.072 154.15 11.134C154.238 11.2038 154.313 11.2878 154.373 11.3825L157.368 16.131H156.896L159.937 11.3328C159.994 11.2445 160.07 11.1706 160.161 11.1166C160.258 11.0624 160.368 11.0358 160.479 11.0396C160.545 11.038 160.611 11.0503 160.672 11.0755C160.733 11.1007 160.788 11.1384 160.834 11.1862C160.928 11.2864 160.985 11.4149 160.998 11.5515C161.01 11.7078 160.969 11.8636 160.881 11.9937L157.708 16.8864V19.6345C157.71 19.7153 157.696 19.7956 157.665 19.8704C157.635 19.9453 157.59 20.013 157.532 20.0694C157.476 20.1278 157.409 20.1743 157.334 20.2059C157.26 20.2375 157.18 20.2537 157.099 20.2533Z" fill="#FFFDFC"/>
<path d="M2.3451 20.2533C2.16782 20.256 1.99182 20.223 1.82751 20.1564C1.6632 20.0898 1.51394 19.9909 1.38857 19.8655C1.2632 19.7402 1.16426 19.5909 1.09765 19.4266C1.03105 19.2622 0.998122 19.0862 1.0008 18.909V1.40098C0.994468 1.22137 1.02566 1.04242 1.09241 0.875561C1.15915 0.708698 1.25997 0.557612 1.38842 0.431922C1.51508 0.309143 1.66489 0.212726 1.82912 0.148316C1.99334 0.0839055 2.16874 0.0527828 2.3451 0.0567126H14.0237C14.1985 0.0485129 14.3731 0.0752324 14.5374 0.135394C14.7016 0.195556 14.8522 0.287928 14.9804 0.40705C15.1014 0.526132 15.1963 0.669244 15.2587 0.827151C15.3212 0.985057 15.35 1.15425 15.3431 1.32393C15.3492 1.48798 15.32 1.65142 15.2574 1.80318C15.1948 1.95494 15.1003 2.09151 14.9804 2.20357C14.7172 2.43548 14.3741 2.55583 14.0237 2.53904H3.67944V8.82315H11.1016C11.2763 8.81495 11.451 8.84166 11.6152 8.90183C11.7795 8.96199 11.9301 9.05436 12.0582 9.17348C12.2911 9.41205 12.4214 9.73221 12.4214 10.0656C12.4214 10.3989 12.2911 10.719 12.0582 10.9576C11.9299 11.0762 11.7792 11.1682 11.615 11.2279C11.4507 11.2876 11.2762 11.314 11.1016 11.3055H3.67944V17.766H14.0237C14.3741 17.7492 14.7172 17.8695 14.9804 18.1014C15.1 18.2138 15.1942 18.3503 15.2567 18.502C15.3193 18.6537 15.3488 18.817 15.3431 18.981C15.35 19.1511 15.3213 19.3207 15.2588 19.479C15.1964 19.6373 15.1015 19.7809 14.9804 19.9004C14.8517 20.0186 14.701 20.1102 14.5368 20.1699C14.3726 20.2296 14.1982 20.2563 14.0237 20.2483L2.3451 20.2533Z" stroke="#FFFEFD" stroke-width="2" mask="url(#path-1-inside-1_232_710)"/>
<path d="M23.4983 20.2533C22.7769 20.2651 22.0705 20.0476 21.4806 19.6321C20.881 19.2008 20.4081 18.6164 20.1115 17.9399C19.7689 17.1623 19.5994 16.3196 19.6145 15.47V1.3513C19.6069 1.17669 19.6347 1.00233 19.6962 0.838746C19.7577 0.675159 19.8518 0.525681 19.9726 0.399414C20.0935 0.273148 20.2387 0.17269 20.3994 0.104039C20.5601 0.0353887 20.7331 0 20.9079 0C21.0827 0 21.2556 0.0353887 21.4164 0.104039C21.5771 0.17269 21.7223 0.273148 21.8431 0.399414C21.964 0.525681 22.058 0.675159 22.1196 0.838746C22.1811 1.00233 22.2089 1.17669 22.2012 1.3513V15.47C22.1791 16.0189 22.3044 16.5637 22.564 17.0479C22.6466 17.2268 22.7771 17.3794 22.9412 17.4886C23.1053 17.5979 23.2964 17.6594 23.4933 17.6666H24.1394C24.2978 17.6616 24.4554 17.6915 24.6009 17.7542C24.7465 17.8169 24.8765 17.9108 24.9817 18.0293C25.2027 18.2883 25.318 18.621 25.3047 18.9611C25.3057 19.1455 25.2609 19.3272 25.1741 19.4899C25.0873 19.6526 24.9614 19.7911 24.8078 19.893C24.4354 20.1469 23.9908 20.2733 23.5405 20.2533H23.4983Z" stroke="#FFFEFD" stroke-width="2" mask="url(#path-1-inside-1_232_710)"/>
<path d="M30.5055 26.3038C30.3311 26.309 30.1576 26.2784 29.9955 26.2141C29.8334 26.1497 29.6861 26.0529 29.5628 25.9296C29.4395 25.8062 29.3426 25.659 29.2783 25.4968C29.2139 25.3347 29.1834 25.1612 29.1885 24.9868V13.2039C29.1843 11.9175 29.514 10.6521 30.1452 9.5313C30.7459 8.46362 31.6209 7.5758 32.6797 6.95956C33.4917 6.4796 34.3907 6.16531 35.3249 6.03485C36.259 5.90439 37.2098 5.9603 38.1222 6.19943C39.0346 6.43857 39.8906 6.85618 40.6407 7.42807C41.3907 7.99995 42.02 8.71478 42.4922 9.5313C43.1292 10.6492 43.4552 11.9173 43.4365 13.2039C43.4581 14.4772 43.1599 15.7357 42.5693 16.864C42.02 17.9106 41.2039 18.7935 40.2037 19.4234C39.2779 19.9836 38.2275 20.3051 37.1468 20.3594C36.066 20.4136 34.9888 20.1987 34.0116 19.734C33.1698 19.3211 32.4247 18.7351 31.8249 18.0145V24.9968C31.8305 25.1704 31.8013 25.3434 31.739 25.5056C31.6767 25.6677 31.5825 25.8158 31.4621 25.941C31.3366 26.0645 31.1867 26.1606 31.022 26.2231C30.8573 26.2855 30.6814 26.313 30.5055 26.3038ZM36.3001 18.0294C37.1283 18.0428 37.9437 17.8233 38.6532 17.3958C39.3435 16.9706 39.9093 16.3705 40.2932 15.6564C40.694 14.8895 40.9033 14.037 40.9033 13.1716C40.9033 12.3062 40.694 11.4537 40.2932 10.6868C39.9093 9.97264 39.3435 9.37261 38.6532 8.94741C38.1272 8.62915 37.5418 8.42133 36.9328 8.3367C36.3239 8.25207 35.7041 8.29237 35.1112 8.45512C34.5183 8.61787 33.9648 8.89969 33.4844 9.28337C33.004 9.66704 32.6068 10.1446 32.3169 10.6868C31.9256 11.4566 31.7217 12.308 31.7217 13.1716C31.7217 14.0352 31.9256 14.8866 32.3169 15.6564C32.6991 16.3773 33.2721 16.9791 33.9732 17.3963C34.6744 17.8135 35.4768 18.0299 36.2926 18.0219L36.3001 18.0294Z" stroke="#FFFEFD" stroke-width="2" mask="url(#path-1-inside-1_232_710)"/>
<path d="M49.9516 20.2533C49.6026 20.2764 49.2586 20.1603 48.995 19.9303C48.8758 19.8002 48.7845 19.6472 48.7268 19.4805C48.6691 19.3138 48.6462 19.137 48.6595 18.9611V7.40178C48.6402 7.22739 48.6603 7.05089 48.7184 6.88534C48.7765 6.71979 48.8711 6.56941 48.9952 6.44534C49.1193 6.32128 49.2696 6.22669 49.4352 6.16859C49.6007 6.11049 49.7772 6.09036 49.9516 6.10968C50.1273 6.08438 50.3065 6.10033 50.4749 6.15627C50.6433 6.21222 50.7964 6.30668 50.922 6.43205C51.0476 6.55743 51.1423 6.71034 51.1986 6.87867C51.2549 7.04699 51.2712 7.22606 51.2462 7.40178V18.9611C51.268 19.31 51.152 19.6536 50.9232 19.9178C50.7928 20.0372 50.6393 20.1286 50.4722 20.1863C50.3051 20.244 50.1279 20.2668 49.9516 20.2533ZM49.9268 11.4098C49.9117 10.4293 50.1763 9.46486 50.6896 8.62932C51.1958 7.81354 51.9035 7.14177 52.7446 6.67872C53.6136 6.19321 54.5943 5.94312 55.5897 5.95317C56.6233 5.95317 57.3953 6.11882 57.9055 6.45013C58.4025 6.78558 58.6062 7.19554 58.487 7.65274C58.4507 7.86576 58.346 8.06115 58.1888 8.20934C58.0489 8.33597 57.8771 8.4219 57.6918 8.45782C57.4851 8.49152 57.2736 8.48225 57.0706 8.43052C56.091 8.20735 55.0757 8.1896 54.0888 8.37835C53.3062 8.5195 52.5827 8.88861 52.0091 9.43937C51.7558 9.69852 51.5576 10.0063 51.4265 10.3441C51.2954 10.6819 51.2341 11.0427 51.2462 11.4048L49.9268 11.4098Z" stroke="#FFFEFD" stroke-width="2" mask="url(#path-1-inside-1_232_710)"/>
<path d="M68.133 20.3577C66.8039 20.3831 65.4904 20.0665 64.3188 19.4383C63.2305 18.8506 62.3258 17.9734 61.7048 16.9037C61.0622 15.7746 60.7368 14.4928 60.7631 13.1939C60.7368 11.8957 61.044 10.6124 61.6551 9.4667C62.2291 8.41118 63.0828 7.53425 64.1225 6.9322C65.2255 6.3079 66.4758 5.99126 67.7429 6.01532C68.9633 5.97941 70.1691 6.28857 71.2216 6.90733C72.1808 7.49558 72.9489 8.34919 73.4331 9.36484C73.9594 10.4927 74.2203 11.726 74.196 12.9703C74.2004 13.1221 74.1729 13.2731 74.1151 13.4135C74.0573 13.554 73.9705 13.6807 73.8605 13.7853C73.7466 13.8932 73.6123 13.9773 73.4656 14.0327C73.3188 14.0882 73.1625 14.1138 73.0057 14.1083H62.5844V12.041H72.9287L71.8677 12.7641C71.8648 11.9646 71.6885 11.1753 71.3509 10.4507C71.0409 9.76516 70.5328 9.18814 69.8919 8.79399C69.2511 8.39984 68.507 8.20664 67.7553 8.23921C66.8715 8.21439 65.9985 8.43826 65.2357 8.88529C64.5443 9.3083 63.9916 9.92405 63.6454 10.6569C63.2726 11.4535 63.0865 12.3245 63.1013 13.2039C63.0857 14.0913 63.3088 14.9666 63.7473 15.7384C64.1741 16.4737 64.7901 17.0812 65.5314 17.4976C66.3312 17.938 67.2326 18.1607 68.1454 18.1437C68.7052 18.1391 69.2599 18.0382 69.7854 17.8455C70.2701 17.6858 70.7282 17.4547 71.1446 17.1597C71.3868 16.9758 71.6805 16.8724 71.9845 16.864C72.272 16.8502 72.5539 16.9472 72.7722 17.1349C72.904 17.2375 73.0136 17.3661 73.0939 17.5127C73.1742 17.6593 73.2237 17.8207 73.2393 17.9871C73.2451 18.1453 73.2099 18.3023 73.1372 18.4429C73.0645 18.5835 72.9567 18.703 72.8243 18.7897C72.1673 19.2921 71.4284 19.6771 70.6402 19.9278C69.8335 20.207 68.9866 20.3522 68.133 20.3577Z" stroke="#FFFEFD" stroke-width="2" mask="url(#path-1-inside-1_232_710)"/>
<path d="M83.9836 20.3576C82.8432 20.3685 81.7097 20.1801 80.6341 19.8011C79.7439 19.5119 78.9279 19.0309 78.2437 18.3921C78.1209 18.2701 78.0277 18.1215 77.9713 17.9578C77.9149 17.7941 77.8967 17.6197 77.9182 17.4479C77.9373 17.2771 77.9913 17.112 78.0768 16.9628C78.1623 16.8136 78.2774 16.6836 78.4152 16.5807C78.5527 16.4562 78.7143 16.3611 78.8899 16.3013C79.0655 16.2415 79.2515 16.2182 79.4364 16.2328C79.7707 16.2737 80.0788 16.4344 80.3036 16.6851C80.705 17.0852 81.1846 17.3982 81.7125 17.6045C82.3948 17.8949 83.1303 18.0396 83.8718 18.0293C84.8658 18.0293 85.6286 17.8637 86.1603 17.5324C86.3949 17.4105 86.5935 17.2295 86.7365 17.0072C86.8794 16.7849 86.9618 16.5291 86.9754 16.2652C86.9756 15.9962 86.9072 15.7316 86.7768 15.4964C86.6464 15.2612 86.4581 15.0631 86.2299 14.9208C85.7214 14.5431 84.7945 14.2334 83.4494 13.9915C81.7084 13.647 80.4453 13.1293 79.6601 12.4385C79.2869 12.131 78.9877 11.7436 78.7842 11.3049C78.5808 10.8663 78.4785 10.3875 78.4847 9.90402C78.457 9.10403 78.7341 8.32335 79.26 7.71985C79.8014 7.1264 80.4857 6.68157 81.2479 6.42776C82.0621 6.1417 82.9194 5.99716 83.7824 6.00038C84.8169 5.98181 85.845 6.16581 86.8089 6.54205C87.6218 6.85416 88.3425 7.36707 88.9036 8.03294C89.0147 8.14767 89.1017 8.28357 89.1593 8.43254C89.2169 8.58151 89.244 8.7405 89.239 8.90014C89.2283 9.05231 89.1832 9.2001 89.107 9.33225C89.0308 9.46441 88.9255 9.57749 88.7992 9.663C88.6546 9.75924 88.4919 9.82496 88.321 9.85615C88.1501 9.88734 87.9746 9.88333 87.8053 9.84438C87.4477 9.78528 87.1152 9.62293 86.8486 9.37727C86.4562 8.98791 85.9779 8.69595 85.4522 8.52493C84.8875 8.35967 84.3011 8.28093 83.7128 8.29137C83.0497 8.27148 82.3908 8.40411 81.7871 8.67902C81.2603 8.9275 80.9994 9.31764 80.9994 9.81708C80.9962 10.1156 81.0828 10.4082 81.2479 10.6569C81.4992 10.9713 81.8369 11.2053 82.2194 11.3303C82.9071 11.5871 83.6165 11.7817 84.339 11.9118C85.4018 12.0976 86.4332 12.4322 87.4027 12.9057C88.0544 13.2155 88.6125 13.6921 89.0204 14.2873C89.355 14.8361 89.5273 15.4684 89.5173 16.1111C89.526 16.874 89.3053 17.622 88.8837 18.258C88.4192 18.9315 87.7741 19.4603 87.0226 19.7836C86.0625 20.1908 85.0261 20.3865 83.9836 20.3576Z" stroke="#FFFEFD" stroke-width="2" mask="url(#path-1-inside-1_232_710)"/>
<path d="M100.818 20.3576C99.4891 20.383 98.1757 20.0665 97.0041 19.4383C95.9161 18.851 95.0121 17.9737 94.3925 16.9037C93.7491 15.7748 93.4228 14.493 93.4483 13.1939C93.4232 11.8958 93.7303 10.6128 94.3404 9.46667C94.9153 8.41106 95.7698 7.53417 96.8103 6.93217C97.9085 6.3033 99.1553 5.98065 100.421 5.99788C101.636 5.96425 102.837 6.27341 103.885 6.88995C104.844 7.47753 105.613 8.33127 106.096 9.3474C106.631 10.4737 106.9 11.7084 106.881 12.9554C106.886 13.1072 106.858 13.2582 106.8 13.3986C106.743 13.5391 106.656 13.6657 106.546 13.7704C106.432 13.8783 106.298 13.9625 106.151 14.018C106.004 14.0734 105.848 14.0991 105.691 14.0934H95.2697V12.026H105.614L104.555 12.7491C104.552 11.9495 104.375 11.1602 104.036 10.4358C103.723 9.74886 103.212 9.17171 102.567 8.77916C101.922 8.38661 101.175 8.19675 100.421 8.23421C99.5361 8.20892 98.6621 8.43281 97.8986 8.88029C97.2078 9.30396 96.6552 9.91953 96.3083 10.6519C95.9364 11.4487 95.7511 12.3197 95.7666 13.1989C95.75 14.0864 95.9732 14.9621 96.4127 15.7334C96.8381 16.4698 97.4545 17.0776 98.1968 17.4926C98.9955 17.9334 99.8962 18.1563 100.808 18.1387C101.369 18.1339 101.924 18.033 102.451 17.8405C102.935 17.6803 103.392 17.4492 103.808 17.1547C104.05 16.9711 104.343 16.8678 104.647 16.859C104.936 16.8448 105.218 16.9418 105.438 17.1299C105.569 17.2326 105.678 17.3612 105.758 17.5078C105.838 17.6544 105.887 17.8158 105.902 17.9821C105.908 18.1401 105.874 18.297 105.802 18.4377C105.729 18.5783 105.622 18.6979 105.49 18.7847C104.832 19.2869 104.092 19.6718 103.303 19.9228C102.504 20.2015 101.665 20.3483 100.818 20.3576Z" stroke="#FFFEFD" stroke-width="2" mask="url(#path-1-inside-1_232_710)"/>
<path d="M112.845 20.2805C112.67 20.2856 112.496 20.2551 112.334 20.1906C112.171 20.1261 112.024 20.0291 111.9 19.9055C111.777 19.7819 111.68 19.6344 111.615 19.472C111.551 19.3096 111.52 19.1357 111.525 18.961V7.42654C111.518 7.24981 111.548 7.07354 111.613 6.90889C111.677 6.74423 111.775 6.59473 111.901 6.46986C112.026 6.35002 112.174 6.25643 112.336 6.19456C112.498 6.1327 112.671 6.10381 112.845 6.10957C113.021 6.0983 113.197 6.12464 113.362 6.1868C113.527 6.24896 113.677 6.34553 113.802 6.4701C113.927 6.59468 114.024 6.74441 114.086 6.90931C114.148 7.07422 114.175 7.25053 114.164 7.42654V18.961C114.17 19.1346 114.14 19.3076 114.078 19.4697C114.016 19.6318 113.922 19.7799 113.801 19.9053C113.677 20.0309 113.527 20.1292 113.363 20.1938C113.198 20.2584 113.022 20.2879 112.845 20.2805ZM123.472 20.2805C123.298 20.2857 123.124 20.255 122.962 20.1905C122.799 20.126 122.652 20.029 122.529 19.9054C122.405 19.7818 122.309 19.6342 122.244 19.4718C122.18 19.3094 122.15 19.1356 122.155 18.961V12.5999C122.19 11.7641 122.002 10.934 121.611 10.1946C121.273 9.59768 120.764 9.11567 120.15 8.81059C119.492 8.49941 118.771 8.34462 118.043 8.35834C117.362 8.34836 116.689 8.49905 116.078 8.79816C115.521 9.0669 115.041 9.47101 114.681 9.97347C114.335 10.4698 114.154 11.0629 114.164 11.6681H112.534C112.518 10.6431 112.792 9.63433 113.324 8.75842C113.853 7.90317 114.597 7.20276 115.484 6.72829C116.429 6.22203 117.488 5.96545 118.56 5.98284C119.672 5.96435 120.77 6.22766 121.753 6.74819C122.702 7.257 123.48 8.03501 123.989 8.98452C124.532 9.96519 124.804 11.172 124.804 12.6049V18.966C124.809 19.1407 124.779 19.3146 124.714 19.477C124.65 19.6394 124.553 19.7869 124.429 19.9105C124.306 20.034 124.158 20.1311 123.996 20.1955C123.833 20.26 123.659 20.2906 123.485 20.2855L123.472 20.2805Z" stroke="#FFFEFD" stroke-width="2" mask="url(#path-1-inside-1_232_710)"/>
<path d="M129.858 8.85034C129.536 8.86499 129.22 8.7536 128.979 8.53974C128.87 8.44223 128.784 8.32253 128.726 8.18874C128.668 8.05495 128.64 7.91025 128.643 7.76451C128.636 7.61058 128.663 7.45694 128.721 7.31414C128.778 7.17134 128.866 7.04272 128.979 6.93705C129.22 6.72319 129.536 6.61179 129.858 6.62645H135.822C136.144 6.61179 136.46 6.72319 136.701 6.93705C136.814 7.04272 136.902 7.17134 136.96 7.31414C137.017 7.45694 137.044 7.61058 137.037 7.76451C137.04 7.91025 137.012 8.05495 136.954 8.18874C136.896 8.32253 136.81 8.44223 136.701 8.53974C136.46 8.7536 136.144 8.86499 135.822 8.85034H129.858ZM135.598 20.2532C134.775 20.2649 133.967 20.036 133.272 19.5947C132.579 19.1519 132.016 18.5317 131.642 17.7982C131.238 17.0056 131.034 16.126 131.049 15.2363V2.90171C131.049 2.55902 131.185 2.23036 131.427 1.98804C131.669 1.74573 131.998 1.60962 132.341 1.60962C132.683 1.60962 133.012 1.74573 133.254 1.98804C133.497 2.23036 133.633 2.55902 133.633 2.90171V15.2363C133.611 15.865 133.813 16.4811 134.202 16.9757C134.364 17.1924 134.575 17.3681 134.818 17.4889C135.06 17.6097 135.327 17.6722 135.598 17.6714H136.478C136.628 17.6699 136.776 17.7016 136.912 17.7644C137.049 17.8271 137.169 17.9192 137.266 18.0342C137.488 18.2923 137.605 18.6254 137.591 18.966C137.595 19.1436 137.559 19.3197 137.485 19.4811C137.41 19.6425 137.301 19.785 137.164 19.8978C136.853 20.147 136.463 20.275 136.065 20.2581L135.598 20.2532Z" stroke="#FFFEFD" stroke-width="2" mask="url(#path-1-inside-1_232_710)"/>
<path d="M141.793 20.5241C141.486 20.5196 141.193 20.3957 140.976 20.1786C140.758 19.9614 140.634 19.6682 140.63 19.3612C140.628 19.2059 140.657 19.0516 140.716 18.908C140.776 18.7644 140.864 18.6345 140.975 18.5263C141.083 18.4177 141.211 18.3316 141.352 18.2728C141.493 18.214 141.644 18.1837 141.797 18.1837C141.949 18.1837 142.101 18.214 142.242 18.2728C142.383 18.3316 142.51 18.4177 142.618 18.5263C142.727 18.636 142.812 18.7665 142.87 18.9099C142.928 19.0533 142.956 19.2067 142.953 19.3612C142.955 19.513 142.926 19.6636 142.869 19.804C142.811 19.9445 142.726 20.0719 142.618 20.1787C142.511 20.2899 142.383 20.3779 142.241 20.4373C142.099 20.4967 141.947 20.5263 141.793 20.5241Z" stroke="#FFFEFD" stroke-width="2" mask="url(#path-1-inside-1_232_710)"/>
<path d="M146.43 20.2533C146.349 20.2546 146.269 20.2397 146.194 20.2095C146.119 20.1793 146.051 20.1343 145.993 20.0773C145.936 20.0203 145.891 19.9524 145.86 19.8776C145.83 19.8029 145.815 19.7227 145.816 19.642V11.6608C145.813 11.5788 145.827 11.4972 145.857 11.4211C145.888 11.3449 145.934 11.2759 145.992 11.2185C146.05 11.1622 146.118 11.1181 146.194 11.0886C146.269 11.0592 146.349 11.0451 146.43 11.047H149.247C149.735 11.0365 150.219 11.1439 150.656 11.3601C151.047 11.5561 151.377 11.8551 151.61 12.2248C151.845 12.6079 151.966 13.0501 151.958 13.4995C151.962 13.8711 151.853 14.2351 151.645 14.5431C151.431 14.8629 151.136 15.1202 150.79 15.2886C151.274 15.3964 151.71 15.6579 152.033 16.034C152.362 16.444 152.53 16.9601 152.505 17.4852C152.518 17.9844 152.388 18.477 152.132 18.9056C151.875 19.3341 151.502 19.6808 151.056 19.9054C150.571 20.1526 150.033 20.2763 149.488 20.2656L146.43 20.2533ZM147.043 14.8314H149.247C149.641 14.8491 150.029 14.7326 150.348 14.5009C150.494 14.3817 150.61 14.2293 150.685 14.0564C150.76 13.8835 150.793 13.6951 150.78 13.507C150.794 13.3186 150.762 13.1297 150.687 12.9566C150.612 12.7834 150.495 12.6312 150.348 12.513C150.027 12.2857 149.64 12.1712 149.247 12.1875H147.043V14.8314ZM147.043 19.1227H149.496C149.824 19.1284 150.149 19.064 150.45 18.9338C150.715 18.8149 150.94 18.6226 151.098 18.3797C151.268 18.108 151.354 17.7928 151.347 17.4727C151.355 17.1743 151.268 16.8811 151.098 16.6354C150.933 16.4126 150.708 16.2404 150.45 16.1384C150.146 16.0192 149.822 15.9609 149.496 15.967H147.043V19.1227Z" stroke="#FFFEFD" stroke-width="2" mask="url(#path-1-inside-1_232_710)"/>
<path d="M157.099 20.2533C157.02 20.2533 156.94 20.2374 156.867 20.2066C156.793 20.1757 156.727 20.1306 156.671 20.0737C156.615 20.0168 156.57 19.9493 156.541 19.8752C156.511 19.8011 156.497 19.7218 156.498 19.642V16.8938L153.347 12.0012C153.253 11.8658 153.21 11.7008 153.228 11.5365C153.249 11.397 153.323 11.2708 153.434 11.1837C153.546 11.0932 153.686 11.0448 153.829 11.047C153.943 11.0416 154.055 11.072 154.15 11.134C154.238 11.2038 154.313 11.2878 154.373 11.3825L157.368 16.131H156.896L159.937 11.3328C159.994 11.2445 160.07 11.1706 160.161 11.1166C160.258 11.0624 160.368 11.0358 160.479 11.0396C160.545 11.038 160.611 11.0503 160.672 11.0755C160.733 11.1007 160.788 11.1384 160.834 11.1862C160.928 11.2864 160.985 11.4149 160.998 11.5515C161.01 11.7078 160.969 11.8636 160.881 11.9937L157.708 16.8864V19.6345C157.71 19.7153 157.696 19.7956 157.665 19.8704C157.635 19.9453 157.59 20.013 157.532 20.0694C157.476 20.1278 157.409 20.1743 157.334 20.2059C157.26 20.2375 157.18 20.2537 157.099 20.2533Z" stroke="#FFFEFD" stroke-width="2" mask="url(#path-1-inside-1_232_710)"/>
</g>
<defs>
<clipPath id="clip0_232_710">
<rect width="162" height="26" fill="white"/>
</clipPath>
</defs>
</svg>
