<svg width="40" height="40" viewBox="0 0 40 40" fill="none" xmlns="http://www.w3.org/2000/svg">
<path fill-rule="evenodd" clip-rule="evenodd" d="M20.4545 38C30.0944 38 37.9091 29.9411 37.9091 20C37.9091 10.0589 30.0944 2 20.4545 2C10.8147 2 3 10.0589 3 20C3 29.9411 10.8147 38 20.4545 38ZM12.2727 18.3636C14.3815 18.3636 16.0909 16.6542 16.0909 14.5454C16.0909 12.4367 14.3815 10.7273 12.2727 10.7273C10.164 10.7273 8.45455 12.4367 8.45455 14.5454C8.45455 16.6542 10.164 18.3636 12.2727 18.3636ZM31.3636 14.5454C31.3636 16.6542 29.6542 18.3636 27.5454 18.3636C25.4367 18.3636 23.7273 16.6542 23.7273 14.5454C23.7273 12.4367 25.4367 10.7273 27.5454 10.7273C29.6542 10.7273 31.3636 12.4367 31.3636 14.5454ZM20.4056 32.5455C14.1459 32.5455 9.0057 27.7525 8.45455 21.6364H32.3567C31.8055 27.7525 26.6653 32.5455 20.4056 32.5455Z" fill="url(#paint0_linear_22_937)"/>
<defs>
<linearGradient id="paint0_linear_22_937" x1="3" y1="2" x2="41.2698" y2="11.2992" gradientUnits="userSpaceOnUse">
<stop stop-color="#FA6535"/>
<stop offset="1" stop-color="#FAB135"/>
</linearGradient>
</defs>
</svg>
