<svg width="31" height="31" viewBox="0 0 31 31" fill="none" xmlns="http://www.w3.org/2000/svg">
<path fill-rule="evenodd" clip-rule="evenodd" d="M15.5 0C6.93959 0 0 6.8058 0 15.2012C0 23.5965 6.93959 30.4023 15.5 30.4023C24.0604 30.4023 31 23.5965 31 15.2012C31 6.8058 24.0604 0 15.5 0ZM16.762 19.9998C16.6092 20.1578 16.3108 20.1897 16.3108 20.1897H15.3227C15.3227 20.1897 13.1425 20.3158 11.222 18.3915C9.12762 16.292 7.27824 12.1264 7.27824 12.1264C7.27824 12.1264 7.1715 11.8532 7.28714 11.7216C7.41733 11.573 7.77233 11.5636 7.77233 11.5636L10.1344 11.5488C10.1344 11.5488 10.3568 11.5839 10.5161 11.6967C10.6479 11.7901 10.7215 11.9637 10.7215 11.9637C10.7215 11.9637 11.1031 12.8932 11.6085 13.734C12.5959 15.3757 13.0552 15.7346 13.39 15.5587C13.8784 15.3026 13.732 13.2381 13.732 13.2381C13.732 13.2381 13.7409 12.4892 13.4862 12.1552C13.2889 11.8968 12.9169 11.8213 12.7528 11.8003C12.6194 11.7831 12.8377 11.4858 13.1207 11.3527C13.5461 11.1526 14.2965 11.1409 15.1836 11.1495C15.875 11.1565 16.0739 11.1977 16.344 11.2608C16.9708 11.4064 16.9512 11.8731 16.909 12.8803C16.8964 13.1815 16.8817 13.531 16.8817 13.9348C16.8817 14.0255 16.879 14.1223 16.8762 14.2218C16.8615 14.7378 16.8447 15.3286 17.1979 15.5486C17.379 15.6607 17.8214 15.5649 18.9284 13.7558C19.4532 12.8979 19.8462 11.8898 19.8462 11.8898C19.8462 11.8898 19.9327 11.71 20.0662 11.6329C20.2028 11.5543 20.3872 11.5784 20.3872 11.5784L22.873 11.5636C22.873 11.5636 23.6202 11.4772 23.7407 11.8026C23.8676 12.1428 23.4617 12.9384 22.446 14.2415C21.4836 15.4767 21.0147 15.9323 21.0566 16.3346C21.0874 16.6293 21.3922 16.8954 21.9778 17.4184C23.1987 18.5096 23.5259 19.0837 23.6046 19.2217C23.6111 19.2331 23.6159 19.2415 23.6194 19.247C24.1668 20.1212 23.0121 20.1897 23.0121 20.1897L20.8037 20.2193C20.8037 20.2193 20.3298 20.3096 19.7055 19.897C19.3785 19.6811 19.0589 19.3284 18.7546 18.9925C18.2898 18.4795 17.8604 18.0055 17.4939 18.1175C16.8785 18.3059 16.8971 19.5818 16.8971 19.5818C16.8971 19.5818 16.9019 19.855 16.762 19.9998Z" fill="#FFFEFD"/>
</svg>
