<svg xmlns="http://www.w3.org/2000/svg" xmlns:xlink="http://www.w3.org/1999/xlink" preserveAspectRatio="xMidYMid" width="24" height="24" viewBox="0 0 24 24">
  <defs>
    <style>

      .cls-2 {
        fill: #f9784e;
      }
    </style>
  </defs>
  <path d="M23.965,8.676 C23.973,8.792 23.990,8.906 23.994,9.023 C23.977,9.023 23.963,9.023 23.947,9.023 C23.525,13.671 20.210,16.109 15.737,16.926 C15.737,16.926 13.936,17.755 13.936,17.755 C13.936,17.755 16.876,19.224 16.876,19.224 C17.301,18.927 17.817,18.750 18.375,18.750 C19.825,18.750 21.000,19.925 21.000,21.375 C21.000,22.825 19.825,24.000 18.375,24.000 C16.925,24.000 15.750,22.825 15.750,21.375 C15.750,21.041 15.819,20.724 15.933,20.430 C15.933,20.430 12.189,18.558 12.189,18.558 C12.189,18.558 8.074,20.451 8.074,20.451 C8.183,20.739 8.250,21.049 8.250,21.375 C8.250,22.825 7.075,24.000 5.625,24.000 C4.175,24.000 3.000,22.825 3.000,21.375 C3.000,19.925 4.175,18.750 5.625,18.750 C6.128,18.750 6.594,18.899 6.994,19.145 C6.994,19.145 10.369,17.648 10.369,17.648 C10.369,17.648 9.208,17.068 9.208,17.068 C3.930,16.392 -0.000,13.664 -0.000,8.000 C-0.000,8.000 1.209,8.000 1.209,8.000 C2.242,6.838 4.989,6.000 8.250,6.000 C11.256,6.000 13.808,6.716 15.000,7.738 C15.000,7.738 15.000,0.000 15.000,0.000 C19.522,0.000 23.261,3.475 23.900,8.000 C23.900,8.000 24.000,8.000 24.000,8.000 C24.000,8.234 23.978,8.452 23.965,8.676 ZM18.375,22.500 C18.996,22.500 19.500,21.996 19.500,21.375 C19.500,20.754 18.996,20.250 18.375,20.250 C17.754,20.250 17.250,20.754 17.250,21.375 C17.250,21.996 17.754,22.500 18.375,22.500 ZM5.625,20.250 C5.004,20.250 4.500,20.754 4.500,21.375 C4.500,21.996 5.004,22.500 5.625,22.500 C6.246,22.500 6.750,21.996 6.750,21.375 C6.750,20.754 6.246,20.250 5.625,20.250 ZM8.250,6.750 C5.896,6.750 3.486,7.260 2.284,8.000 C2.284,8.000 14.216,8.000 14.216,8.000 C13.014,7.260 10.605,6.750 8.250,6.750 Z" id="path-1" class="cls-2" fill-rule="evenodd"/>
</svg>
