<svg xmlns="http://www.w3.org/2000/svg" xmlns:xlink="http://www.w3.org/1999/xlink" preserveAspectRatio="xMidYMid" width="24" height="24" viewBox="0 0 24 24">
  <defs>
    <style>

      .cls-2 {
        fill: #f9784e;
      }
    </style>
  </defs>
  <path d="M22.500,24.000 C22.500,24.000 1.500,24.000 1.500,24.000 C0.672,24.000 0.000,23.329 0.000,22.500 C0.000,22.500 0.000,10.500 0.000,10.500 C0.000,9.672 0.672,9.000 1.500,9.000 C1.500,9.000 11.250,9.000 11.250,9.000 C11.250,9.000 11.250,8.177 11.250,8.177 C9.610,7.840 9.000,6.360 9.000,4.583 C9.737,1.473 10.491,2.247 12.000,0.000 C13.467,2.224 14.222,1.471 15.000,4.583 C15.000,6.360 14.390,7.840 12.750,8.177 C12.750,8.177 12.750,9.000 12.750,9.000 C12.750,9.000 22.500,9.000 22.500,9.000 C23.328,9.000 24.000,9.672 24.000,10.500 C24.000,10.500 24.000,22.500 24.000,22.500 C24.000,23.329 23.328,24.000 22.500,24.000 ZM2.000,22.000 C2.000,22.000 22.000,22.000 22.000,22.000 C22.000,22.000 22.000,21.000 22.000,21.000 C22.000,21.000 2.000,21.000 2.000,21.000 C2.000,21.000 2.000,22.000 2.000,22.000 ZM2.000,20.000 C2.000,20.000 22.000,20.000 22.000,20.000 C22.000,20.000 22.000,19.000 22.000,19.000 C22.000,19.000 2.000,19.000 2.000,19.000 C2.000,19.000 2.000,20.000 2.000,20.000 ZM13.506,6.253 C13.506,5.150 12.000,3.756 12.000,3.756 C12.000,3.756 10.494,5.150 10.494,6.253 C10.494,7.055 10.709,7.743 11.250,8.060 C11.250,8.060 11.250,6.750 11.250,6.750 C11.250,6.336 11.586,6.000 12.000,6.000 C12.414,6.000 12.750,6.336 12.750,6.750 C12.750,6.750 12.750,8.060 12.750,8.060 C13.292,7.743 13.506,7.055 13.506,6.253 ZM22.000,15.000 C22.000,15.000 22.000,12.000 22.000,12.000 C22.000,11.171 21.828,11.000 21.000,11.000 C21.000,11.000 3.000,11.000 3.000,11.000 C2.172,11.000 2.000,11.171 2.000,12.000 C2.000,12.000 2.000,17.000 2.000,17.000 C2.000,17.829 2.172,16.500 3.000,16.500 C3.000,16.500 3.462,15.000 5.250,15.000 C6.104,15.000 7.199,18.000 8.250,18.000 C9.249,18.000 10.192,15.750 11.250,15.750 C12.231,15.750 13.962,18.000 14.896,18.000 C15.986,18.000 17.861,15.000 18.750,15.000 C20.595,15.000 21.750,18.000 21.750,18.000 C22.578,18.000 22.000,15.828 22.000,15.000 Z" id="path-1" class="cls-2" fill-rule="evenodd"/>
</svg>
