<svg xmlns="http://www.w3.org/2000/svg" xmlns:xlink="http://www.w3.org/1999/xlink" preserveAspectRatio="xMidYMid" width="24" height="23" viewBox="0 0 24 23">
  <defs>
    <style>

      .cls-2 {
        fill: #f9784e;
      }
    </style>
  </defs>
  <path d="M22.500,17.000 C22.500,17.000 14.371,17.000 14.371,17.000 C14.371,17.000 18.424,21.053 18.424,21.053 C18.865,21.494 18.865,22.209 18.424,22.650 C17.983,23.091 17.268,23.091 16.827,22.650 C16.827,22.650 12.012,17.836 12.012,17.836 C12.012,17.836 7.197,22.650 7.197,22.650 C6.756,23.091 6.041,23.091 5.600,22.650 C5.159,22.209 5.159,21.494 5.600,21.053 C5.600,21.053 9.653,17.000 9.653,17.000 C9.653,17.000 1.500,17.000 1.500,17.000 C0.672,17.000 -0.000,16.318 -0.000,15.476 C-0.000,15.476 -0.000,2.524 -0.000,2.524 C-0.000,1.682 0.672,1.000 1.500,1.000 C1.500,1.000 9.000,1.000 9.000,1.000 C9.000,1.000 9.000,1.000 9.000,1.000 C9.000,0.448 9.504,0.000 10.125,0.000 C10.125,0.000 13.875,0.000 13.875,0.000 C14.496,0.000 15.000,0.448 15.000,1.000 C15.000,1.000 15.000,1.000 15.000,1.000 C15.000,1.000 22.500,1.000 22.500,1.000 C23.328,1.000 24.000,1.682 24.000,2.524 C24.000,2.524 24.000,15.476 24.000,15.476 C24.000,16.318 23.328,17.000 22.500,17.000 ZM22.000,3.000 C22.000,3.000 2.000,3.000 2.000,3.000 C2.000,3.000 2.000,15.000 2.000,15.000 C2.000,15.000 22.000,15.000 22.000,15.000 C22.000,15.000 22.000,3.000 22.000,3.000 ZM10.634,6.306 C10.657,6.272 10.672,6.233 10.702,6.202 C10.779,6.126 10.868,6.075 10.964,6.040 C11.246,5.894 11.597,5.930 11.834,6.166 C11.928,6.261 11.981,6.377 12.015,6.498 C12.015,6.498 14.978,9.461 14.978,9.461 C14.978,9.461 19.023,5.417 19.023,5.417 C19.316,5.124 19.791,5.124 20.084,5.417 C20.377,5.710 20.377,6.184 20.084,6.477 C20.084,6.477 15.606,10.955 15.606,10.955 C15.584,10.985 15.572,11.019 15.546,11.046 C15.519,11.072 15.484,11.084 15.455,11.106 C15.455,11.106 15.311,11.250 15.311,11.250 C15.018,11.543 14.543,11.543 14.250,11.250 C14.066,11.066 14.011,10.813 14.058,10.576 C14.058,10.576 11.272,7.789 11.272,7.789 C11.272,7.789 5.561,13.500 5.561,13.500 C5.268,13.793 4.793,13.793 4.500,13.500 C4.207,13.207 4.207,12.732 4.500,12.440 C4.500,12.440 10.634,6.306 10.634,6.306 Z" id="path-1" class="cls-2" fill-rule="evenodd"/>
</svg>
