<svg xmlns="http://www.w3.org/2000/svg" xmlns:xlink="http://www.w3.org/1999/xlink" preserveAspectRatio="xMidYMid" width="21" height="25" viewBox="0 0 21 25">
  <defs>
    <style>

      .cls-2 {
        fill: #f9784e;
      }
    </style>
  </defs>
  <path d="M20.000,16.000 C19.448,16.000 19.000,15.512 19.000,14.909 C19.000,14.909 18.000,12.000 18.000,12.000 C18.000,12.000 18.000,17.429 18.000,17.429 C18.000,17.544 17.960,17.645 17.937,17.753 C17.970,17.861 18.000,17.971 18.000,18.091 C18.000,18.091 18.000,23.909 18.000,23.909 C18.000,24.512 17.552,25.000 17.000,25.000 C16.448,25.000 16.000,24.512 16.000,23.909 C16.000,23.909 16.000,19.000 16.000,19.000 C16.000,19.000 14.000,19.000 14.000,19.000 C14.000,19.000 14.000,23.909 14.000,23.909 C14.000,24.512 13.552,25.000 13.000,25.000 C12.448,25.000 12.000,24.512 12.000,23.909 C12.000,23.909 12.000,18.091 12.000,18.091 C12.000,17.971 12.030,17.861 12.062,17.753 C12.040,17.645 12.000,17.544 12.000,17.429 C12.000,17.429 12.000,12.000 12.000,12.000 C12.000,12.000 11.000,14.909 11.000,14.909 C11.000,15.512 10.552,16.000 10.000,16.000 C9.848,16.000 9.708,15.957 9.579,15.891 C9.465,15.955 9.340,16.000 9.200,16.000 C8.758,16.000 8.400,15.642 8.400,15.200 C8.400,15.200 6.718,10.716 6.718,10.716 C6.718,10.716 8.000,17.429 8.000,17.429 C8.000,18.111 7.580,18.677 7.000,18.894 C7.000,18.894 7.000,24.200 7.000,24.200 C7.000,24.642 6.776,25.000 6.500,25.000 C6.224,25.000 6.000,24.642 6.000,24.200 C6.000,24.200 6.000,19.000 6.000,19.000 C6.000,19.000 4.000,19.000 4.000,19.000 C4.000,19.000 4.000,24.200 4.000,24.200 C4.000,24.642 3.776,25.000 3.500,25.000 C3.224,25.000 3.000,24.642 3.000,24.200 C3.000,24.200 3.000,18.894 3.000,18.894 C2.420,18.677 2.000,18.111 2.000,17.429 C2.000,17.429 3.281,10.717 3.281,10.717 C3.281,10.717 1.600,15.200 1.600,15.200 C1.600,15.642 1.242,16.000 0.800,16.000 C0.358,16.000 -0.000,15.642 -0.000,15.200 C-0.000,15.200 2.400,8.800 2.400,8.800 C2.400,8.358 2.758,8.000 3.200,8.000 C3.242,8.000 3.279,8.018 3.320,8.024 C3.371,8.012 3.422,8.000 3.500,8.000 C3.500,8.000 6.500,8.000 6.500,8.000 C6.578,8.000 6.629,8.012 6.680,8.024 C6.721,8.018 6.757,8.000 6.800,8.000 C7.242,8.000 7.600,8.358 7.600,8.800 C7.600,8.800 9.426,13.670 9.426,13.670 C9.426,13.670 11.000,9.091 11.000,9.091 C11.000,8.488 11.448,8.000 12.000,8.000 C12.262,8.000 12.495,8.116 12.674,8.295 C12.914,8.124 13.188,8.000 13.500,8.000 C13.500,8.000 16.500,8.000 16.500,8.000 C16.812,8.000 17.086,8.124 17.326,8.295 C17.505,8.116 17.738,8.000 18.000,8.000 C18.552,8.000 19.000,8.488 19.000,9.091 C19.000,9.091 21.000,14.909 21.000,14.909 C21.000,15.512 20.552,16.000 20.000,16.000 ZM15.000,7.000 C13.343,7.000 12.000,5.657 12.000,4.000 C12.000,2.343 13.343,1.000 15.000,1.000 C16.657,1.000 18.000,2.343 18.000,4.000 C18.000,5.657 16.657,7.000 15.000,7.000 ZM8.000,-0.000 C8.000,-0.000 10.000,2.000 10.000,2.000 C10.000,2.000 8.000,2.000 8.000,2.000 C8.000,2.000 8.000,-0.000 8.000,-0.000 ZM5.000,7.000 C3.343,7.000 2.000,5.657 2.000,4.000 C2.000,2.343 3.343,1.000 5.000,1.000 C6.657,1.000 8.000,2.343 8.000,4.000 C8.000,5.657 6.657,7.000 5.000,7.000 ZM2.000,-0.000 C2.000,-0.000 2.000,2.000 2.000,2.000 C2.000,2.000 -0.000,2.000 -0.000,2.000 C-0.000,2.000 2.000,-0.000 2.000,-0.000 Z" id="path-1" class="cls-2" fill-rule="evenodd"/>
</svg>
