<svg xmlns="http://www.w3.org/2000/svg" xmlns:xlink="http://www.w3.org/1999/xlink" preserveAspectRatio="xMidYMid" width="23" height="24" viewBox="0 0 23 24">
  <defs>
    <style>

      .cls-2 {
        fill: #f9784e;
      }
    </style>
  </defs>
  <path d="M11.500,24.000 C4.725,24.000 -0.000,10.175 -0.000,3.449 C-0.000,-3.277 4.725,1.927 11.500,1.927 C18.275,1.927 23.000,-3.277 23.000,3.449 C23.000,10.175 18.275,24.000 11.500,24.000 ZM11.500,19.433 C13.824,19.433 15.726,18.145 16.036,16.478 C15.087,17.336 13.417,17.911 11.500,17.911 C9.583,17.911 7.913,17.336 6.964,16.479 C7.274,18.145 9.176,19.433 11.500,19.433 ZM5.750,5.963 C3.845,5.963 2.300,5.240 2.300,6.374 C2.300,7.507 3.845,10.068 5.750,10.068 C7.655,10.068 9.200,10.792 9.200,9.658 C9.200,8.524 7.655,5.963 5.750,5.963 ZM17.250,5.963 C15.345,5.963 13.800,8.524 13.800,9.658 C13.800,10.792 15.345,10.068 17.250,10.068 C19.155,10.068 20.700,7.507 20.700,6.374 C20.700,5.240 19.155,5.963 17.250,5.963 Z" id="path-1" class="cls-2" fill-rule="evenodd"/>
</svg>
