<svg width="12" height="12" viewBox="0 0 12 12" fill="none" xmlns="http://www.w3.org/2000/svg">
<path d="M6.0013 3.08332C6.32214 3.08332 6.58464 3.34582 6.58464 3.66666V5.99999C6.58464 6.32082 6.32214 6.58332 6.0013 6.58332C5.68047 6.58332 5.41797 6.32082 5.41797 5.99999V3.66666C5.41797 3.34582 5.68047 3.08332 6.0013 3.08332ZM5.99547 0.166656C2.77547 0.166656 0.167969 2.77999 0.167969 5.99999C0.167969 9.21999 2.77547 11.8333 5.99547 11.8333C9.2213 11.8333 11.8346 9.21999 11.8346 5.99999C11.8346 2.77999 9.2213 0.166656 5.99547 0.166656ZM6.0013 10.6667C3.42297 10.6667 1.33464 8.57832 1.33464 5.99999C1.33464 3.42166 3.42297 1.33332 6.0013 1.33332C8.57964 1.33332 10.668 3.42166 10.668 5.99999C10.668 8.57832 8.57964 10.6667 6.0013 10.6667ZM6.58464 8.91666H5.41797V7.74999H6.58464V8.91666Z" fill="#756D69"/>
</svg>
