<?xml version="1.0" encoding="UTF-8"?>
<!DOCTYPE svg PUBLIC "-//W3C//DTD SVG 1.1//EN" "http://www.w3.org/Graphics/SVG/1.1/DTD/svg11.dtd">
<!-- Creator: CorelDRAW 2018 (64-Bit) -->
<svg xmlns="http://www.w3.org/2000/svg" xml:space="preserve" width="21px" height="21px" version="1.1" style="shape-rendering:geometricPrecision; text-rendering:geometricPrecision; image-rendering:optimizeQuality; fill-rule:evenodd; clip-rule:evenodd"
viewBox="0 0 21 21"
 xmlns:xlink="http://www.w3.org/1999/xlink">
 <defs>
  <style type="text/css">
   <![CDATA[
    .fil0 {fill:#586071;fill-rule:nonzero}
   ]]>
  </style>
 </defs>
 <g id="instagram">
  <metadata id="CorelCorpID_0Corel-Layer"/>
  <path class="fil0" d="M10.5 5.04c-2.96,0 -5.42,2.41 -5.42,5.42 0,3 2.41,5.42 5.42,5.42 3.01,0 5.42,-2.46 5.42,-5.42 0,-2.97 -2.46,-5.42 -5.42,-5.42zm0 8.89l0 0c-1.91,0 -3.47,-1.57 -3.47,-3.47 0,-1.91 1.56,-3.47 3.47,-3.47 1.91,0 3.47,1.56 3.47,3.47 0,1.9 -1.56,3.47 -3.47,3.47zm5.63 -10.25l0 0c0.68,0 1.23,0.55 1.23,1.23 0,0.68 -0.55,1.23 -1.23,1.23 -0.68,0 -1.23,-0.55 -1.23,-1.23 0,-0.68 0.55,-1.23 1.23,-1.23zm3.18 -1.94l0 0c-1.1,-1.15 -2.67,-1.74 -4.45,-1.74l-8.72 0c-3.68,0 -6.14,2.46 -6.14,6.14l0 8.68c0,1.82 0.59,3.39 1.78,4.53 1.14,1.1 2.67,1.65 4.4,1.65l8.64 0c1.82,0 3.34,-0.59 4.44,-1.65 1.15,-1.1 1.74,-2.67 1.74,-4.49l0 -8.72c0,-1.78 -0.59,-3.3 -1.69,-4.4zm-0.17 13.12l0 0c0,1.31 -0.47,2.37 -1.23,3.09 -0.76,0.72 -1.82,1.1 -3.09,1.1l-8.64 0c-1.27,0 -2.33,-0.38 -3.09,-1.1 -0.76,-0.76 -1.14,-1.82 -1.14,-3.13l0 -8.68c0,-1.27 0.38,-2.33 1.14,-3.09 0.72,-0.72 1.82,-1.1 3.09,-1.1l8.72 0c1.27,0 2.33,0.38 3.09,1.14 0.72,0.76 1.15,1.82 1.15,3.05l0 8.72z"/>
 </g>
</svg>
